MATH 4780 - Fall 2023 - Simulation-based Inference r emo::ji('computer')
…
A 95% confidence interval is bounded by the middle 95% of the bootstrap distribution.

R Lab Fit Regression to Bootstrap Samples

set.seed(2023)
boot_fits <- delivery_data |> 
  specify(time ~ cases) |> 
  generate(reps = 100, type = "bootstrap") |> 
  fit()
boot_fits

# A tibble: 200 × 3
# Groups:   replicate [100]
  replicate term      estimate
      <int> <chr>        <dbl>
1         1 intercept    0.738
2         1 cases        2.54 
3         2 intercept    2.24 
4         2 cases        2.33 
5         3 intercept    4.16 
6         3 cases        2.14 
# ℹ 194 more rows
…
